﻿{
    "SELECT_FROM": {
        "message0": "SELECT %1",
        "args0": [{ "type": "input_value", "name": "expr_list", "check": [ "Expression", "AllOrDistinct" ] }],
        "message1": "FROM %1",
        "args1": [{ "type": "input_value", "name": "data_source", "check": "Table" }],
        "previousStatement": "NestedSelect",
        "nextStatement": "QualifyingClause",
        "colour": 120
    },
    "ALL": {
        "message0": "ALL %1",
        "args0": [{ "type": "input_value", "name": "expr_list", "check": "Expression" }],
        "output": "AllOrDistinct",
        "colour": 120
    },
    "DISTINCT": {
        "message0": "DISTINCT %1",
        "args0": [{ "type": "input_value", "name": "expr_list", "check": "Expression" }],
        "output": "AllOrDistinct",
        "colour": 120
    },
    "WHERE": {
        "message0": "WHERE %1",
        "args0": [{ "type": "input_value", "name": "predicates", "check": "Predicate" }],
        "previousStatement": "QualifyingClause",
        "nextStatement": "QualifyingClause",
        "colour": 120
    },
    "GROUP_BY": {
        "message0": "GROUP BY %1",
        "args0": [{ "type": "input_value", "name": "expr_list", "check": "Expression" }],
        "previousStatement": "QualifyingClause",
        "nextStatement": "QualifyingClause",
        "colour": 120
    },
    "HAVING": {
        "message0": "HAVING %1",
        "args0": [{ "type": "input_value", "name": "predicates", "check": "Predicate" }],
        "previousStatement": "QualifyingClause",
        "nextStatement": "QualifyingClause",
        "colour": 120
    },
    "ORDER_BY": {
        "message0": "ORDER BY %1",
        "args0": [{ "type": "input_value", "name": "expr_list", "check": "Expression" }],
        "previousStatement": "QualifyingClause",
        "nextStatement": "QualifyingClause",
        "colour": 120
    },
    "UNION": {
        "message0": "UNION",
        "previousStatement": "QualifyingClause",
        "nextStatement": "NestedSelect",
        "colour": 120
    },
    "UNION_ALL": {
        "message0": "UNION ALL",
        "previousStatement": "QualifyingClause",
        "nextStatement": "NestedSelect",
        "colour": 120
    },
    "EXCEPT": {
        "message0": "EXCEPT",
        "previousStatement": "QualifyingClause",
        "nextStatement": "NestedSelect",
        "colour": 120
    },
    "INTERSECT": {
        "message0": "INTERSECT",
        "previousStatement": "QualifyingClause",
        "nextStatement": "NestedSelect",
        "colour": 120
    },
    "asterisk": {
        "message0": "* %1",
        "args0": [{ "type": "input_value", "name": "next", "check": "Expression" }],
        "output": "Expression",
        "colour": 60
    },
    "literal": {
        "message0": "%1 %2",
        "args0": [{ "type": "field_input", "name": "value", "text": "" }, { "type": "input_value", "name": "next", "check": "Expression" }],
        "output": "Expression",
        "colour": 0
    },
    "start_list": {
        "message0": "%1",
        "args0": [{ "type": "input_value", "name": "L", "check": "Expression" }],
        "inputsInline": true,
        "output": "Expression",
        "nextStatement": "List",
        "colour": 300
    },
    "continue_list": {
        "message0": "%1",
        "args0": [{ "type": "input_value", "name": "L", "check": "Expression" }],
        "inputsInline": true,
        "previousStatement": "List",
        "nextStatement": "List",
        "colour": 300
    },
    "add": {
        "message0": "%1 + %2",
        "args0": [{ "type": "input_value", "name": "L", "check": "Expression" }, { "type": "input_value", "name": "R", "check": "Expression" }],
        "inputsInline": true,
        "output": "Expression",
        "colour": 300
    },
    "subtract": {
        "message0": "%1 - %2",
        "args0": [{ "type": "input_value", "name": "L", "check": "Expression" }, { "type": "input_value", "name": "R", "check": "Expression" }],
        "inputsInline": true,
        "output": "Expression",
        "colour": 300
    },
    "multiply": {
        "message0": "%1 * %2",
        "args0": [{ "type": "input_value", "name": "L", "check": "Expression" }, { "type": "input_value", "name": "R", "check": "Expression" }],
        "inputsInline": true,
        "output": "Expression",
        "colour": 300
    },
    "divide": {
        "message0": "%1 / %2",
        "args0": [{ "type": "input_value", "name": "L", "check": "Expression" }, { "type": "input_value", "name": "R", "check": "Expression" }],
        "inputsInline": true,
        "output": "Expression",
        "colour": 300
    },
    "ABS": {
        "message0": "ABS( %1 )",
        "args0": [{ "type": "input_value", "name": "param", "check": "Expression" }],
        "inputsInline": true,
        "output": "Expression",
        "colour": 300
    },
    "CEIL": {
        "message0": "CEIL( %1 )",
        "args0": [{ "type": "input_value", "name": "param", "check": "Expression" }],
        "inputsInline": true,
        "output": "Expression",
        "colour": 300
    },
    "EXP": {
        "message0": "EXP( %1 )",
        "args0": [{ "type": "input_value", "name": "param", "check": "Expression" }],
        "inputsInline": true,
        "output": "Expression",
        "colour": 300
    },
    "FLOOR": {
        "message0": "FLOOR( %1 )",
        "args0": [{ "type": "input_value", "name": "param", "check": "Expression" }],
        "inputsInline": true,
        "output": "Expression",
        "colour": 300
    },
    "LOG": {
        "message0": "LOG( %1 )",
        "args0": [{ "type": "input_value", "name": "param", "check": "Expression" }],
        "inputsInline": true,
        "output": "Expression",
        "colour": 300
    },
    "LOG10": {
        "message0": "LOG10( %1 )",
        "args0": [{ "type": "input_value", "name": "param", "check": "Expression" }],
        "inputsInline": true,
        "output": "Expression",
        "colour": 300
    },
    "MOD": {
        "message0": "MOD( %1 , %2 )",
        "args0": [{ "type": "input_value", "name": "L", "check": "Expression" }, { "type": "input_value", "name": "R", "check": "Expression" }],
        "inputsInline": true,
        "output": "Expression",
        "colour": 300
    },
    "ROUND": {
        "message0": "ROUND( %1 , %2 )",
        "args0": [{ "type": "input_value", "name": "value", "check": "Expression" }, { "type": "input_value", "name": "places", "check": "Expression" }],
        "inputsInline": true,
        "output": "Expression",
        "colour": 300
    },
    "SIGN": {
        "message0": "SIGN( %1 )",
        "args0": [{ "type": "input_value", "name": "param", "check": "Expression" }],
        "inputsInline": true,
        "output": "Expression",
        "colour": 300
    },
    "TRUNC": {
        "message0": "TRUNC( %1 , %2 )",
        "args0": [{ "type": "input_value", "name": "value", "check": "Expression" }, { "type": "input_value", "name": "precision", "check": "Expression" }],
        "inputsInline": true,
        "output": "Expression",
        "colour": 300
    },
    "SIN": {
        "message0": "SIN( %1 )",
        "args0": [{ "type": "input_value", "name": "param", "check": "Expression" }],
        "inputsInline": true,
        "output": "Expression",
        "colour": 300
    },
    "COS": {
        "message0": "COS( %1 )",
        "args0": [{ "type": "input_value", "name": "param", "check": "Expression" }],
        "inputsInline": true,
        "output": "Expression",
        "colour": 300
    },
    "TAN": {
        "message0": "TAN( %1 )",
        "args0": [{ "type": "input_value", "name": "param", "check": "Expression" }],
        "inputsInline": true,
        "output": "Expression",
        "colour": 300
    },
    "ASIN": {
        "message0": "ASIN( %1 )",
        "args0": [{ "type": "input_value", "name": "param", "check": "Expression" }],
        "inputsInline": true,
        "output": "Expression",
        "colour": 300
    },
    "ACOS": {
        "message0": "ACOS( %1 )",
        "args0": [{ "type": "input_value", "name": "param", "check": "Expression" }],
        "inputsInline": true,
        "output": "Expression",
        "colour": 300
    },
    "ATAN": {
        "message0": "ATAN( %1 )",
        "args0": [{ "type": "input_value", "name": "param", "check": "Expression" }],
        "inputsInline": true,
        "output": "Expression",
        "colour": 300
    },
    "ATAN2": {
        "message0": "ATAN2( %1 )",
        "args0": [{ "type": "input_value", "name": "y", "check": "Expression" }, { "type": "input_value", "name": "x", "check": "Expression" }],
        "inputsInline": true,
        "output": "Expression",
        "colour": 300
    },
    "AVG": {
        "message0": "AVG( %1 )",
        "args0": [{ "type": "input_value", "name": "set", "check": "Expression" }],
        "inputsInline": true,
        "output": "Expression",
        "colour": 300
    },
    "COUNT": {
        "message0": "COUNT( %1 )",
        "args0": [{ "type": "input_value", "name": "set", "check": "Expression" }],
        "inputsInline": true,
        "output": "Expression",
        "colour": 300
    },
    "MAX": {
        "message0": "MAX( %1 )",
        "args0": [{ "type": "input_value", "name": "set", "check": "Expression" }],
        "inputsInline": true,
        "output": "Expression",
        "colour": 300
    },
    "MEDIAN": {
        "message0": "MEDIAN( %1 )",
        "args0": [{ "type": "input_value", "name": "set", "check": "Expression" }],
        "inputsInline": true,
        "output": "Expression",
        "colour": 300
    },
    "MIN": {
        "message0": "MIN( %1 )",
        "args0": [{ "type": "input_value", "name": "set", "check": "Expression" }],
        "inputsInline": true,
        "output": "Expression",
        "colour": 300
    },
    "STDDEV": {
        "message0": "STDDEV( %1 )",
        "args0": [{ "type": "input_value", "name": "set", "check": "Expression" }],
        "inputsInline": true,
        "output": "Expression",
        "colour": 300
    },
    "SUM": {
        "message0": "SUM( %1 )",
        "args0": [{ "type": "input_value", "name": "set", "check": "Expression" }],
        "inputsInline": true,
        "output": "Expression",
        "colour": 300
    },
    "VARIANCE": {
        "message0": "VARIANCE( %1 )",
        "args0": [{ "type": "input_value", "name": "set", "check": "Expression" }],
        "inputsInline": true,
        "output": "Expression",
        "colour": 300
    },
    "LENGTH": {
        "message0": "LENGTH( %1 )",
        "args0": [{ "type": "input_value", "name": "param", "check": "Expression" }],
        "inputsInline": true,
        "output": "Expression",
        "colour": 300
    },
    "LOWER": {
        "message0": "LOWER( %1 )",
        "args0": [{ "type": "input_value", "name": "param", "check": "Expression" }],
        "inputsInline": true,
        "output": "Expression",
        "colour": 300
    },
    "UPPER": {
        "message0": "UPPER( %1 )",
        "args0": [{ "type": "input_value", "name": "param", "check": "Expression" }],
        "inputsInline": true,
        "output": "Expression",
        "colour": 300
    },
    "AND": {
        "message0": "%1 AND %2",
        "args0": [{ "type": "input_value", "name": "L", "check": "Predicate" }, { "type": "input_value", "name": "R", "check": "Predicate" }],
        "inputsInline": true,
        "output": "Predicate",
        "colour": 240
    },
    "OR": {
        "message0": "%1 OR %2",
        "args0": [{ "type": "input_value", "name": "L", "check": "Predicate" }, { "type": "input_value", "name": "R", "check": "Predicate" }],
        "inputsInline": true,
        "output": "Predicate",
        "colour": 240
    },
    "eq": {
        "message0": "%1 = %2",
        "args0": [{ "type": "input_value", "name": "L", "check": "Expression" }, { "type": "input_value", "name": "R", "check": "Expression" }],
        "inputsInline": true,
        "output": "Predicate",
        "colour": 240
    },
    "ne": {
        "message0": "%1 <> %2",
        "args0": [{ "type": "input_value", "name": "L", "check": "Expression" }, { "type": "input_value", "name": "R", "check": "Expression" }],
        "inputsInline": true,
        "output": "Predicate",
        "colour": 240
    },
    "lt": {
        "message0": "%1 < %2",
        "args0": [{ "type": "input_value", "name": "L", "check": "Expression" }, { "type": "input_value", "name": "R", "check": "Expression" }],
        "inputsInline": true,
        "output": "Predicate",
        "colour": 240
    },
    "gt": {
        "message0": "%1 > %2",
        "args0": [{ "type": "input_value", "name": "L", "check": "Expression" }, { "type": "input_value", "name": "R", "check": "Expression" }],
        "inputsInline": true,
        "output": "Predicate",
        "colour": 240
    },
    "le": {
        "message0": "%1 <= %2",
        "args0": [{ "type": "input_value", "name": "L", "check": "Expression" }, { "type": "input_value", "name": "R", "check": "Expression" }],
        "inputsInline": true,
        "output": "Predicate",
        "colour": 240
    },
    "ge": {
        "message0": "%1 >= %2",
        "args0": [{ "type": "input_value", "name": "L", "check": "Expression" }, { "type": "input_value", "name": "R", "check": "Expression" }],
        "inputsInline": true,
        "output": "Predicate",
        "colour": 240
    },
    "BETWEEN_AND": {
        "message0": "%1 BETWEEN %2 AND %3",
        "args0": [{ "type": "input_value", "name": "value", "check": "Expression" }, { "type": "input_value", "name": "min", "check": "Expression" }, { "type": "input_value", "name": "max", "check": "Expression" }],
        "inputsInline": true,
        "output": "Predicate",
        "colour": 240
    },
    "EXISTS": {
        "message0": "EXISTS %1",
        "args0": [{ "type": "input_statement", "name": "subquery", "check": "NestedSelect" }],
        "output": "Predicate",
        "colour": 240
    },
    "NOT_EXISTS": {
        "message0": "NOT EXISTS %1",
        "args0": [{ "type": "input_statement", "name": "subquery", "check": "NestedSelect" }],
        "output": "Predicate",
        "colour": 240
    },
    "IS": {
        "message0": "%1 IS %2",
        "args0": [{ "type": "input_value", "name": "value", "check": "Expression" }, { "type": "field_dropdown", "name": "category", "options": [[ "NULL", "NULL" ], [ "NOT NULL", "NOT NULL" ]] }],
        "inputsInline": true,
        "output": "Predicate",
        "colour": 240
    },
    "IN_set": {
        "message0": "%1 IN %2",
        "args0": [{ "type": "input_value", "name": "value", "check": "Expression" }, { "type": "input_value", "name": "set", "check": "Expression" }],
        "inputsInline": true,
        "output": "Predicate",
        "colour": 240
    },
    "IN_subquery": {
        "message0": "%1 IN",
        "args0": [{ "type": "input_value", "name": "value", "check": "Expression" }],
        "message1": "%1",
        "args1": [{ "type": "input_statement", "name": "subquery", "check": "NestedSelect" }],
        "inputsInline": true,
        "output": "Predicate",
        "colour": 240
    }
}
